{
  "files": {
    "main.css": "/static/css/main.85d0854c.chunk.css",
    "main.js": "/static/js/main.9a8e7bf0.chunk.js",
    "main.js.map": "/static/js/main.9a8e7bf0.chunk.js.map",
    "runtime-main.js": "/static/js/runtime-main.1e7ed497.js",
    "runtime-main.js.map": "/static/js/runtime-main.1e7ed497.js.map",
    "static/js/2.bc46a8a3.chunk.js": "/static/js/2.bc46a8a3.chunk.js",
    "static/js/2.bc46a8a3.chunk.js.map": "/static/js/2.bc46a8a3.chunk.js.map",
    "index.html": "/index.html",
    "precache-manifest.2221b1b58e69468a97e4c7707dd3cc73.js": "/precache-manifest.2221b1b58e69468a97e4c7707dd3cc73.js",
    "service-worker.js": "/service-worker.js",
    "static/css/main.85d0854c.chunk.css.map": "/static/css/main.85d0854c.chunk.css.map",
    "static/js/2.bc46a8a3.chunk.js.LICENSE.txt": "/static/js/2.bc46a8a3.chunk.js.LICENSE.txt"
  },
  "entrypoints": [
    "static/js/runtime-main.1e7ed497.js",
    "static/js/2.bc46a8a3.chunk.js",
    "static/css/main.85d0854c.chunk.css",
    "static/js/main.9a8e7bf0.chunk.js"
  ]
}